%YAML 1.1
%TAG !u! tag:unity3d.com,2011:
--- !u!114 &11400000
MonoBehaviour:
  m_ObjectHideFlags: 0
  m_CorrespondingSourceObject: {fileID: 0}
  m_PrefabInstance: {fileID: 0}
  m_PrefabAsset: {fileID: 0}
  m_GameObject: {fileID: 0}
  m_Enabled: 1
  m_EditorHideFlags: 0
  m_Script: {fileID: 11500000, guid: 869c12656a31c73459f2eea72b2602f9, type: 3}
  m_Name: Red Pill
  m_EditorClassIdentifier: 
  itemName: Red Pill
  spriteWhite: {fileID: 21300000, guid: d771801fdc8a0794484deb0fb0769d03, type: 3}
  spriteColored: {fileID: 21300000, guid: db633f7da98d185458dd5413688bc380, type: 3}
  category: 4
