%YAML 1.1
%TAG !u! tag:unity3d.com,2011:
--- !u!114 &11400000
MonoBehaviour:
  m_ObjectHideFlags: 0
  m_CorrespondingSourceObject: {fileID: 0}
  m_PrefabInstance: {fileID: 0}
  m_PrefabAsset: {fileID: 0}
  m_GameObject: {fileID: 0}
  m_Enabled: 1
  m_EditorHideFlags: 0
  m_Script: {fileID: 11500000, guid: 869c12656a31c73459f2eea72b2602f9, type: 3}
  m_Name: Chisel
  m_EditorClassIdentifier: 
  itemName: Chisel
  spriteWhite: {fileID: 21300000, guid: 1ed81ab8a35b5fb45a5b0c8c2f4e1178, type: 3}
  spriteColored: {fileID: 21300000, guid: 8b633a11bdf2a294aa6657c9c4916642, type: 3}
  category: 0
