%YAML 1.1
%TAG !u! tag:unity3d.com,2011:
--- !u!114 &11400000
MonoBehaviour:
  m_ObjectHideFlags: 0
  m_CorrespondingSourceObject: {fileID: 0}
  m_PrefabInstance: {fileID: 0}
  m_PrefabAsset: {fileID: 0}
  m_GameObject: {fileID: 0}
  m_Enabled: 1
  m_EditorHideFlags: 0
  m_Script: {fileID: 11500000, guid: 869c12656a31c73459f2eea72b2602f9, type: 3}
  m_Name: French Key
  m_EditorClassIdentifier: 
  itemName: French Key
  spriteWhite: {fileID: 21300000, guid: 98ddc80f2de606f469655d9da59a97c4, type: 3}
  spriteColored: {fileID: 21300000, guid: 54afaf5c05b9d364faef5b68a8f736cf, type: 3}
  category: 0
