%YAML 1.1
%TAG !u! tag:unity3d.com,2011:
--- !u!114 &11400000
MonoBehaviour:
  m_ObjectHideFlags: 0
  m_CorrespondingSourceObject: {fileID: 0}
  m_PrefabInstance: {fileID: 0}
  m_PrefabAsset: {fileID: 0}
  m_GameObject: {fileID: 0}
  m_Enabled: 1
  m_EditorHideFlags: 0
  m_Script: {fileID: 11500000, guid: 869c12656a31c73459f2eea72b2602f9, type: 3}
  m_Name: Pickaxe
  m_EditorClassIdentifier: 
  itemName: Pickaxe
  spriteWhite: {fileID: 21300000, guid: edbe9a65d03f42143bccd93be399ad21, type: 3}
  spriteColored: {fileID: 21300000, guid: fb5407f8e28f4864a9913d1449f96df9, type: 3}
  category: 0
