%YAML 1.1
%TAG !u! tag:unity3d.com,2011:
--- !u!114 &11400000
MonoBehaviour:
  m_ObjectHideFlags: 0
  m_CorrespondingSourceObject: {fileID: 0}
  m_PrefabInstance: {fileID: 0}
  m_PrefabAsset: {fileID: 0}
  m_GameObject: {fileID: 0}
  m_Enabled: 1
  m_EditorHideFlags: 0
  m_Script: {fileID: 11500000, guid: 869c12656a31c73459f2eea72b2602f9, type: 3}
  m_Name: Shovel
  m_EditorClassIdentifier: 
  itemName: Shovel
  spriteWhite: {fileID: 21300000, guid: f4ef08ea37c6b6745b90300788cd4dc2, type: 3}
  spriteColored: {fileID: 21300000, guid: 29b49302e3a13be49b2e9460e4da8e5e, type: 3}
  category: 0
