%YAML 1.1
%TAG !u! tag:unity3d.com,2011:
--- !u!114 &11400000
MonoBehaviour:
  m_ObjectHideFlags: 0
  m_CorrespondingSourceObject: {fileID: 0}
  m_PrefabInstance: {fileID: 0}
  m_PrefabAsset: {fileID: 0}
  m_GameObject: {fileID: 0}
  m_Enabled: 1
  m_EditorHideFlags: 0
  m_Script: {fileID: 11500000, guid: 869c12656a31c73459f2eea72b2602f9, type: 3}
  m_Name: Coffee Maker
  m_EditorClassIdentifier: 
  itemName: Coffee Maker
  spriteWhite: {fileID: 21300000, guid: 069059dc2007b744e9fae2f2ae3ca2e5, type: 3}
  spriteColored: {fileID: 21300000, guid: 9cdcc61c095606a4ab34c5042c3c49fc, type: 3}
  category: 2
