%YAML 1.1
%TAG !u! tag:unity3d.com,2011:
--- !u!114 &11400000
MonoBehaviour:
  m_ObjectHideFlags: 0
  m_CorrespondingSourceObject: {fileID: 0}
  m_PrefabInstance: {fileID: 0}
  m_PrefabAsset: {fileID: 0}
  m_GameObject: {fileID: 0}
  m_Enabled: 1
  m_EditorHideFlags: 0
  m_Script: {fileID: 11500000, guid: 869c12656a31c73459f2eea72b2602f9, type: 3}
  m_Name: Grilled Spatula
  m_EditorClassIdentifier: 
  itemName: Grilled Spatula
  spriteWhite: {fileID: 21300000, guid: 598093fce2b543f4ab72fa8baa8645cd, type: 3}
  spriteColored: {fileID: 21300000, guid: cdc4abfb285f45542a3e848f2ea7264b, type: 3}
  category: 2
