%YAML 1.1
%TAG !u! tag:unity3d.com,2011:
--- !u!114 &11400000
MonoBehaviour:
  m_ObjectHideFlags: 0
  m_CorrespondingSourceObject: {fileID: 0}
  m_PrefabInstance: {fileID: 0}
  m_PrefabAsset: {fileID: 0}
  m_GameObject: {fileID: 0}
  m_Enabled: 1
  m_EditorHideFlags: 0
  m_Script: {fileID: 11500000, guid: 869c12656a31c73459f2eea72b2602f9, type: 3}
  m_Name: Ebook Reader
  m_EditorClassIdentifier: 
  itemName: Ebook Reader
  spriteWhite: {fileID: 21300000, guid: ad3c7aa275a612a44885cee04c2b01e2, type: 3}
  spriteColored: {fileID: 21300000, guid: 042b17d683f1480458e7026d94aa60d7, type: 3}
  category: 1
