%YAML 1.1
%TAG !u! tag:unity3d.com,2011:
--- !u!114 &11400000
MonoBehaviour:
  m_ObjectHideFlags: 0
  m_CorrespondingSourceObject: {fileID: 0}
  m_PrefabInstance: {fileID: 0}
  m_PrefabAsset: {fileID: 0}
  m_GameObject: {fileID: 0}
  m_Enabled: 1
  m_EditorHideFlags: 0
  m_Script: {fileID: 11500000, guid: 869c12656a31c73459f2eea72b2602f9, type: 3}
  m_Name: Monitor
  m_EditorClassIdentifier: 
  itemName: Monitor
  spriteWhite: {fileID: 21300000, guid: 15b8eae5d2453c843b3b0ca0eda66381, type: 3}
  spriteColored: {fileID: 21300000, guid: 6272c7ba22c44a64a90b25619dba3c50, type: 3}
  category: 1
