%YAML 1.1
%TAG !u! tag:unity3d.com,2011:
--- !u!114 &11400000
MonoBehaviour:
  m_ObjectHideFlags: 0
  m_CorrespondingSourceObject: {fileID: 0}
  m_PrefabInstance: {fileID: 0}
  m_PrefabAsset: {fileID: 0}
  m_GameObject: {fileID: 0}
  m_Enabled: 1
  m_EditorHideFlags: 0
  m_Script: {fileID: 11500000, guid: 869c12656a31c73459f2eea72b2602f9, type: 3}
  m_Name: PC Tower
  m_EditorClassIdentifier: 
  itemName: PC Tower
  spriteWhite: {fileID: 21300000, guid: 4974a8b72116fe1428ccb1744cabdb20, type: 3}
  spriteColored: {fileID: 21300000, guid: 34a016b5657941342aef605d4417d0d8, type: 3}
  category: 1
