%YAML 1.1
%TAG !u! tag:unity3d.com,2011:
--- !u!114 &11400000
MonoBehaviour:
  m_ObjectHideFlags: 0
  m_CorrespondingSourceObject: {fileID: 0}
  m_PrefabInstance: {fileID: 0}
  m_PrefabAsset: {fileID: 0}
  m_GameObject: {fileID: 0}
  m_Enabled: 1
  m_EditorHideFlags: 0
  m_Script: {fileID: 11500000, guid: 869c12656a31c73459f2eea72b2602f9, type: 3}
  m_Name: Radio Box
  m_EditorClassIdentifier: 
  itemName: Radio Box
  spriteWhite: {fileID: 21300000, guid: fee1b2170c108e1468ccf76347c20b1d, type: 3}
  spriteColored: {fileID: 21300000, guid: b83012d6d7cb48342808c5f81eef6f59, type: 3}
  category: 1
